module gitlab.com/rigel314/astroexif

go 1.22.1

require github.com/dsoprea/go-jpeg-image-structure/v2 v2.0.0-20221012074422-4f3f7e934102

require (
	github.com/dsoprea/go-exif/v3 v3.0.1 // indirect
	github.com/dsoprea/go-iptc v0.0.0-20200610044640-bc9ca208b413 // indirect
	github.com/dsoprea/go-logging v0.0.0-20200710184922-b02d349568dd // indirect
	github.com/dsoprea/go-photoshop-info-format v0.0.0-20200610045659-121dd752914d // indirect
	github.com/dsoprea/go-utility/v2 v2.0.0-20221003172846-a3e1774ef349 // indirect
	github.com/go-errors/errors v1.5.1 // indirect
	github.com/go-xmlfmt/xmlfmt v1.1.2 // indirect
	github.com/golang/geo v0.0.0-20230421003525-6adc56603217 // indirect
	golang.org/x/net v0.24.0 // indirect
	gopkg.in/yaml.v2 v2.4.0 // indirect
)
